/home/jefferson/git/consulta-de-carros/src/main/java/com/example/consultadecarros/exceptions/ApiExceptionHendler.java
/home/jefferson/git/consulta-de-carros/src/main/java/com/example/consultadecarros/services/CarService.java
/home/jefferson/git/consulta-de-carros/src/main/java/com/example/consultadecarros/baseController/models/MessageResult.java
/home/jefferson/git/consulta-de-carros/src/main/java/com/example/consultadecarros/exceptions/BusinessException.java
/home/jefferson/git/consulta-de-carros/src/main/java/com/example/consultadecarros/repositories/CarRepository.java
/home/jefferson/git/consulta-de-carros/src/main/java/com/example/consultadecarros/services/BrandServiceImp.java
/home/jefferson/git/consulta-de-carros/src/main/java/com/example/consultadecarros/services/BrandService.java
/home/jefferson/git/consulta-de-carros/src/main/java/com/example/consultadecarros/services/CarServiceImp.java
/home/jefferson/git/consulta-de-carros/src/main/java/com/example/consultadecarros/baseController/enums/MessageType.java
/home/jefferson/git/consulta-de-carros/src/main/java/com/example/consultadecarros/services/AbstractService.java
/home/jefferson/git/consulta-de-carros/src/main/java/com/example/consultadecarros/dto/CarroDTO.java
/home/jefferson/git/consulta-de-carros/src/main/java/com/example/consultadecarros/dto/MarcaDTO.java
/home/jefferson/git/consulta-de-carros/src/main/java/com/example/consultadecarros/controllers/CarController.java
/home/jefferson/git/consulta-de-carros/src/main/java/com/example/consultadecarros/config/SwaggerConfig.java
/home/jefferson/git/consulta-de-carros/src/main/java/com/example/consultadecarros/baseController/models/Response.java
/home/jefferson/git/consulta-de-carros/src/main/java/com/example/consultadecarros/models/BrandModel.java
/home/jefferson/git/consulta-de-carros/src/main/java/com/example/consultadecarros/repositories/BrandRepository.java
/home/jefferson/git/consulta-de-carros/src/main/java/com/example/consultadecarros/models/CarModel.java
/home/jefferson/git/consulta-de-carros/src/main/java/com/example/consultadecarros/repositories/BaseRepository.java
/home/jefferson/git/consulta-de-carros/src/main/java/com/example/consultadecarros/baseController/BaseContrller.java
/home/jefferson/git/consulta-de-carros/src/main/java/com/example/consultadecarros/ConsultaDeCarrosApplication.java
/home/jefferson/git/consulta-de-carros/src/main/java/com/example/consultadecarros/controllers/BrandController.java
